…
## this is just a list of all US States
region_us_states <- state.name

## here we are attaching out eia_geoset function to x as a complex vector
x <- eia_geoset(id_electr_gen, 
                regions[1], # changing regions[number] allows for other region graphs
                n = 12)

## selecting data from x
select(x, region, data) %>% unnest(cols = data)
```

    ## # A tibble: 60 x 4
    ##    region   value date        year
    ##    <chr>    <dbl> <date>     <int>
    ##  1 USA-IL 173552. 2020-01-01  2020
    ##  2 USA-IL 184470. 2019-01-01  2019
    ##  3 USA-IL 188003. 2018-01-01  2018
    ##  4 USA-IL 183592. 2017-01-01  2017
    ##  5 USA-IL 187289. 2016-01-01  2016
    ##  6 USA-IL 193952. 2015-01-01  2015
    ##  7 USA-IL 202144. 2014-01-01  2014
    ##  8 USA-IL 203005. 2013-01-01  2013
    ##  9 USA-IL 197565. 2012-01-01  2012
    ## 10 USA-IL 199500. 2011-01-01  2011
    ## # ... with 50 more rows
…
    ## List of 1
    ##  $ : tibble [33 x 3] (S3: tbl_df/tbl/data.frame)
    ##   ..$ value: num [1:33] 4920 4886 4575 5144 5277 ...
    ##   ..$ date : Date[1:33], format: "2022-01-01" "2021-01-01" ...
    ##   ..$ year : int [1:33] 2022 2021 2020 2019 2018 2017 2016 2015 2014 2013 ...

``` r
## let's note columns are value, date, and year up to 2022 (short term for sure)

# unnesting the three nested data columns
select(vector_emissions_annual, 
       data) %>% unnest(cols = data)
```

    ## # A tibble: 33 x 3
    ##    value date        year
    ##    <dbl> <date>     <int>
    ##  1 4920. 2022-01-01  2022
    ##  2 4886. 2021-01-01  2021
    ##  3 4575. 2020-01-01  2020
    ##  4 5144. 2019-01-01  2019
    ##  5 5277. 2018-01-01  2018
    ##  6 5131. 2017-01-01  2017
    ##  7 5169. 2016-01-01  2016
    ##  8 5262. 2015-01-01  2015
    ##  9 5414. 2014-01-01  2014
    ## 10 5359. 2013-01-01  2013
    ## # ... with 23 more rows
…
