…
``` r
library(knitr)        # load functions for formatting tables
library(dplyr)

# get data from rcfss package
# install latest version if not already installed
# devtools::install_github("uc-cfss/rcfss")
library(rcfss)

# data("mass_shootings")
mass_shootings# 
```

    ## # A tibble: 114 x 14
    ##    case     year month   day location summary   fatalities injured total_victims
    ##    <chr>   <dbl> <chr> <int> <chr>    <chr>          <dbl>   <dbl>         <dbl>
    ##  1 Dayton~  2019 Aug       4 Dayton,~ "PENDING"          9      27            36
    ##  2 El Pas~  2019 Aug       3 El Paso~ "PENDING"         20      26            46
    ##  3 Gilroy~  2019 Jul      28 Gilroy,~ "Santino~          3      12            15
    ##  4 Virgin~  2019 May      31 Virgini~ "DeWayne~         12       4            16
    ##  5 Harry ~  2019 Feb      15 Aurora,~ "Gary Ma~          5       6            11
    ##  6 Pennsy~  2019 Jan      24 State C~ "Jordan ~          3       1             4
    ##  7 SunTru~  2019 Jan      23 Sebring~ "Zephen ~          5       0             5
    ##  8 Mercy ~  2018 Nov      19 Chicago~ "Juan Lo~          3       0             3
    ##  9 Thousa~  2018 Nov       7 Thousan~ "Ian Dav~         12      22            34
    ## 10 Tree o~  2018 Oct      27 Pittsbu~ "Robert ~         11       6            17
    ## # ... with 104 more rows, and 5 more variables: location_type <chr>,
    ## #   male <lgl>, age_of_shooter <dbl>, race <chr>, prior_mental_illness <chr>
…
