…
``` r
## generate df with sentiment derived from the Bing dictionary
(el_idiota_bing <- el_idiota_words %>%
   inner_join(get_sentiments("bing")))
```

    ## Joining, by = "word"

    ## # A tibble: 16,017 x 3
    ##    gutenberg_id word          sentiment
    ##           <int> <chr>         <chr>    
    ##  1         2638 idiot         negative 
    ##  2         2638 great         positive 
    ##  3         2638 difficulty    negative 
    ##  4         2638 succeeded     positive 
    ##  5         2638 breaking      negative 
    ##  6         2638 impossible    negative 
    ##  7         2638 best          positive 
    ##  8         2638 insignificant negative 
    ##  9         2638 weary         negative 
    ## 10         2638 poorly        negative 
    ## # ... with 16,007 more rows
…
-----

``` r
## generate df with sentiment derived from the AFINN sentiment dictionary
(el_idiota_afinn <- el_idiota_words %>% 
   inner_join(get_sentiments("afinn")))
```

    ## Joining, by = "word"

    ## # A tibble: 15,417 x 3
    ##    gutenberg_id word          value
    ##           <int> <chr>         <dbl>
    ##  1         2638 idiot            -3
    ##  2         2638 great             3
    ##  3         2638 best              3
    ##  4         2638 insignificant    -2
    ##  5         2638 weary            -2
    ##  6         2638 remarkable        2
    ##  7         2638 anxious          -2
    ##  8         2638 remarkable        2
    ##  9         2638 strange          -1
    ## 10         2638 chance            2
    ## # ... with 15,407 more rows
…
